%YAML 1.1
%TAG !u! tag:unity3d.com,2011:
--- !u!1 &8815424334388900674
GameObject:
  m_ObjectHideFlags: 0
  m_CorrespondingSourceObject: {fileID: 0}
  m_PrefabInstance: {fileID: 0}
  m_PrefabAsset: {fileID: 0}
  serializedVersion: 6
  m_Component:
  - component: {fileID: 300198910201565409}
  m_Layer: 0
  m_Name: Claster 50
  m_TagString: Untagged
  m_Icon: {fileID: 0}
  m_NavMeshLayer: 0
  m_StaticEditorFlags: 0
  m_IsActive: 1
--- !u!4 &300198910201565409
Transform:
  m_ObjectHideFlags: 0
  m_CorrespondingSourceObject: {fileID: 0}
  m_PrefabInstance: {fileID: 0}
  m_PrefabAsset: {fileID: 0}
  m_GameObject: {fileID: 8815424334388900674}
  m_LocalRotation: {x: 0, y: 0, z: 0, w: 1}
  m_LocalPosition: {x: 0, y: 0, z: 0}
  m_LocalScale: {x: 1, y: 1, z: 1}
  m_Children:
  - {fileID: 2123193561008298938}
  - {fileID: 2347692992659419314}
  - {fileID: 2880877040406099822}
  m_Father: {fileID: 0}
  m_RootOrder: 0
  m_LocalEulerAnglesHint: {x: 0, y: 0, z: 0}
--- !u!1001 &2876211980694256516
PrefabInstance:
  m_ObjectHideFlags: 0
  serializedVersion: 2
  m_Modification:
    m_TransformParent: {fileID: 300198910201565409}
    m_Modifications:
    - target: {fileID: 1769819558649822, guid: 443c1787ebf2b50448eba9a53c45747f, type: 3}
      propertyPath: m_Name
      value: heart
      objectReference: {fileID: 0}
    - target: {fileID: 4703613485780202, guid: 443c1787ebf2b50448eba9a53c45747f, type: 3}
      propertyPath: m_LocalPosition.x
      value: -3
      objectReference: {fileID: 0}
    - target: {fileID: 4703613485780202, guid: 443c1787ebf2b50448eba9a53c45747f, type: 3}
      propertyPath: m_LocalPosition.y
      value: 0
      objectReference: {fileID: 0}
    - target: {fileID: 4703613485780202, guid: 443c1787ebf2b50448eba9a53c45747f, type: 3}
      propertyPath: m_LocalPosition.z
      value: 0
      objectReference: {fileID: 0}
    - target: {fileID: 4703613485780202, guid: 443c1787ebf2b50448eba9a53c45747f, type: 3}
      propertyPath: m_LocalRotation.x
      value: -0
      objectReference: {fileID: 0}
    - target: {fileID: 4703613485780202, guid: 443c1787ebf2b50448eba9a53c45747f, type: 3}
      propertyPath: m_LocalRotation.y
      value: -0
      objectReference: {fileID: 0}
    - target: {fileID: 4703613485780202, guid: 443c1787ebf2b50448eba9a53c45747f, type: 3}
      propertyPath: m_LocalRotation.z
      value: -0
      objectReference: {fileID: 0}
    - target: {fileID: 4703613485780202, guid: 443c1787ebf2b50448eba9a53c45747f, type: 3}
      propertyPath: m_LocalRotation.w
      value: 1
      objectReference: {fileID: 0}
    - target: {fileID: 4703613485780202, guid: 443c1787ebf2b50448eba9a53c45747f, type: 3}
      propertyPath: m_RootOrder
      value: 2
      objectReference: {fileID: 0}
    - target: {fileID: 4703613485780202, guid: 443c1787ebf2b50448eba9a53c45747f, type: 3}
      propertyPath: m_LocalEulerAnglesHint.x
      value: 0
      objectReference: {fileID: 0}
    - target: {fileID: 4703613485780202, guid: 443c1787ebf2b50448eba9a53c45747f, type: 3}
      propertyPath: m_LocalEulerAnglesHint.y
      value: 0
      objectReference: {fileID: 0}
    - target: {fileID: 4703613485780202, guid: 443c1787ebf2b50448eba9a53c45747f, type: 3}
      propertyPath: m_LocalEulerAnglesHint.z
      value: 0
      objectReference: {fileID: 0}
    m_RemovedComponents: []
  m_SourcePrefab: {fileID: 100100000, guid: 443c1787ebf2b50448eba9a53c45747f, type: 3}
--- !u!4 &2880877040406099822 stripped
Transform:
  m_CorrespondingSourceObject: {fileID: 4703613485780202, guid: 443c1787ebf2b50448eba9a53c45747f,
    type: 3}
  m_PrefabInstance: {fileID: 2876211980694256516}
  m_PrefabAsset: {fileID: 0}
--- !u!1001 &5301145707526664415
PrefabInstance:
  m_ObjectHideFlags: 0
  serializedVersion: 2
  m_Modification:
    m_TransformParent: {fileID: 300198910201565409}
    m_Modifications:
    - target: {fileID: 1691652863790834638, guid: 9745c048f1d2ff34ba54d5b76f361644,
        type: 3}
      propertyPath: m_Name
      value: Asteroid-2 (1)
      objectReference: {fileID: 0}
    - target: {fileID: 7567698538635051117, guid: 9745c048f1d2ff34ba54d5b76f361644,
        type: 3}
      propertyPath: m_LocalPosition.x
      value: 3
      objectReference: {fileID: 0}
    - target: {fileID: 7567698538635051117, guid: 9745c048f1d2ff34ba54d5b76f361644,
        type: 3}
      propertyPath: m_LocalPosition.y
      value: 0
      objectReference: {fileID: 0}
    - target: {fileID: 7567698538635051117, guid: 9745c048f1d2ff34ba54d5b76f361644,
        type: 3}
      propertyPath: m_LocalPosition.z
      value: 0
      objectReference: {fileID: 0}
    - target: {fileID: 7567698538635051117, guid: 9745c048f1d2ff34ba54d5b76f361644,
        type: 3}
      propertyPath: m_LocalRotation.x
      value: -0
      objectReference: {fileID: 0}
    - target: {fileID: 7567698538635051117, guid: 9745c048f1d2ff34ba54d5b76f361644,
        type: 3}
      propertyPath: m_LocalRotation.y
      value: -0
      objectReference: {fileID: 0}
    - target: {fileID: 7567698538635051117, guid: 9745c048f1d2ff34ba54d5b76f361644,
        type: 3}
      propertyPath: m_LocalRotation.z
      value: -0
      objectReference: {fileID: 0}
    - target: {fileID: 7567698538635051117, guid: 9745c048f1d2ff34ba54d5b76f361644,
        type: 3}
      propertyPath: m_LocalRotation.w
      value: 1
      objectReference: {fileID: 0}
    - target: {fileID: 7567698538635051117, guid: 9745c048f1d2ff34ba54d5b76f361644,
        type: 3}
      propertyPath: m_RootOrder
      value: 1
      objectReference: {fileID: 0}
    - target: {fileID: 7567698538635051117, guid: 9745c048f1d2ff34ba54d5b76f361644,
        type: 3}
      propertyPath: m_LocalEulerAnglesHint.x
      value: 0
      objectReference: {fileID: 0}
    - target: {fileID: 7567698538635051117, guid: 9745c048f1d2ff34ba54d5b76f361644,
        type: 3}
      propertyPath: m_LocalEulerAnglesHint.y
      value: 0
      objectReference: {fileID: 0}
    - target: {fileID: 7567698538635051117, guid: 9745c048f1d2ff34ba54d5b76f361644,
        type: 3}
      propertyPath: m_LocalEulerAnglesHint.z
      value: 0
      objectReference: {fileID: 0}
    m_RemovedComponents: []
  m_SourcePrefab: {fileID: 100100000, guid: 9745c048f1d2ff34ba54d5b76f361644, type: 3}
--- !u!4 &2347692992659419314 stripped
Transform:
  m_CorrespondingSourceObject: {fileID: 7567698538635051117, guid: 9745c048f1d2ff34ba54d5b76f361644,
    type: 3}
  m_PrefabInstance: {fileID: 5301145707526664415}
  m_PrefabAsset: {fileID: 0}
--- !u!1001 &8390985602960333783
PrefabInstance:
  m_ObjectHideFlags: 0
  serializedVersion: 2
  m_Modification:
    m_TransformParent: {fileID: 300198910201565409}
    m_Modifications:
    - target: {fileID: 1691652863790834638, guid: 9745c048f1d2ff34ba54d5b76f361644,
        type: 3}
      propertyPath: m_Name
      value: Asteroid-2
      objectReference: {fileID: 0}
    - target: {fileID: 7567698538635051117, guid: 9745c048f1d2ff34ba54d5b76f361644,
        type: 3}
      propertyPath: m_LocalPosition.x
      value: 0
      objectReference: {fileID: 0}
    - target: {fileID: 7567698538635051117, guid: 9745c048f1d2ff34ba54d5b76f361644,
        type: 3}
      propertyPath: m_LocalPosition.y
      value: 0
      objectReference: {fileID: 0}
    - target: {fileID: 7567698538635051117, guid: 9745c048f1d2ff34ba54d5b76f361644,
        type: 3}
      propertyPath: m_LocalPosition.z
      value: 0
      objectReference: {fileID: 0}
    - target: {fileID: 7567698538635051117, guid: 9745c048f1d2ff34ba54d5b76f361644,
        type: 3}
      propertyPath: m_LocalRotation.x
      value: -0
      objectReference: {fileID: 0}
    - target: {fileID: 7567698538635051117, guid: 9745c048f1d2ff34ba54d5b76f361644,
        type: 3}
      propertyPath: m_LocalRotation.y
      value: -0
      objectReference: {fileID: 0}
    - target: {fileID: 7567698538635051117, guid: 9745c048f1d2ff34ba54d5b76f361644,
        type: 3}
      propertyPath: m_LocalRotation.z
      value: -0
      objectReference: {fileID: 0}
    - target: {fileID: 7567698538635051117, guid: 9745c048f1d2ff34ba54d5b76f361644,
        type: 3}
      propertyPath: m_LocalRotation.w
      value: 1
      objectReference: {fileID: 0}
    - target: {fileID: 7567698538635051117, guid: 9745c048f1d2ff34ba54d5b76f361644,
        type: 3}
      propertyPath: m_RootOrder
      value: 0
      objectReference: {fileID: 0}
    - target: {fileID: 7567698538635051117, guid: 9745c048f1d2ff34ba54d5b76f361644,
        type: 3}
      propertyPath: m_LocalEulerAnglesHint.x
      value: 0
      objectReference: {fileID: 0}
    - target: {fileID: 7567698538635051117, guid: 9745c048f1d2ff34ba54d5b76f361644,
        type: 3}
      propertyPath: m_LocalEulerAnglesHint.y
      value: 0
      objectReference: {fileID: 0}
    - target: {fileID: 7567698538635051117, guid: 9745c048f1d2ff34ba54d5b76f361644,
        type: 3}
      propertyPath: m_LocalEulerAnglesHint.z
      value: 0
      objectReference: {fileID: 0}
    m_RemovedComponents: []
  m_SourcePrefab: {fileID: 100100000, guid: 9745c048f1d2ff34ba54d5b76f361644, type: 3}
--- !u!4 &2123193561008298938 stripped
Transform:
  m_CorrespondingSourceObject: {fileID: 7567698538635051117, guid: 9745c048f1d2ff34ba54d5b76f361644,
    type: 3}
  m_PrefabInstance: {fileID: 8390985602960333783}
  m_PrefabAsset: {fileID: 0}
