%YAML 1.1
%TAG !u! tag:unity3d.com,2011:
--- !u!1 &7343551297933507843
GameObject:
  m_ObjectHideFlags: 0
  m_CorrespondingSourceObject: {fileID: 0}
  m_PrefabInstance: {fileID: 0}
  m_PrefabAsset: {fileID: 0}
  serializedVersion: 6
  m_Component:
  - component: {fileID: 1987670834423848608}
  m_Layer: 0
  m_Name: Claster 10
  m_TagString: claster
  m_Icon: {fileID: 0}
  m_NavMeshLayer: 0
  m_StaticEditorFlags: 0
  m_IsActive: 1
--- !u!4 &1987670834423848608
Transform:
  m_ObjectHideFlags: 0
  m_CorrespondingSourceObject: {fileID: 0}
  m_PrefabInstance: {fileID: 0}
  m_PrefabAsset: {fileID: 0}
  m_GameObject: {fileID: 7343551297933507843}
  m_LocalRotation: {x: 0, y: 0, z: 0, w: 1}
  m_LocalPosition: {x: 0, y: 0, z: 0}
  m_LocalScale: {x: 1, y: 1, z: 1}
  m_Children:
  - {fileID: 7322098278805840982}
  m_Father: {fileID: 0}
  m_RootOrder: 0
  m_LocalEulerAnglesHint: {x: 0, y: 0, z: 0}
--- !u!1001 &7317756201448745148
PrefabInstance:
  m_ObjectHideFlags: 0
  serializedVersion: 2
  m_Modification:
    m_TransformParent: {fileID: 1987670834423848608}
    m_Modifications:
    - target: {fileID: 1769819558649822, guid: 443c1787ebf2b50448eba9a53c45747f, type: 3}
      propertyPath: m_Name
      value: heart
      objectReference: {fileID: 0}
    - target: {fileID: 4703613485780202, guid: 443c1787ebf2b50448eba9a53c45747f, type: 3}
      propertyPath: m_LocalPosition.x
      value: 3
      objectReference: {fileID: 0}
    - target: {fileID: 4703613485780202, guid: 443c1787ebf2b50448eba9a53c45747f, type: 3}
      propertyPath: m_LocalPosition.y
      value: 0
      objectReference: {fileID: 0}
    - target: {fileID: 4703613485780202, guid: 443c1787ebf2b50448eba9a53c45747f, type: 3}
      propertyPath: m_LocalPosition.z
      value: 0
      objectReference: {fileID: 0}
    - target: {fileID: 4703613485780202, guid: 443c1787ebf2b50448eba9a53c45747f, type: 3}
      propertyPath: m_LocalRotation.x
      value: -0
      objectReference: {fileID: 0}
    - target: {fileID: 4703613485780202, guid: 443c1787ebf2b50448eba9a53c45747f, type: 3}
      propertyPath: m_LocalRotation.y
      value: -0
      objectReference: {fileID: 0}
    - target: {fileID: 4703613485780202, guid: 443c1787ebf2b50448eba9a53c45747f, type: 3}
      propertyPath: m_LocalRotation.z
      value: -0
      objectReference: {fileID: 0}
    - target: {fileID: 4703613485780202, guid: 443c1787ebf2b50448eba9a53c45747f, type: 3}
      propertyPath: m_LocalRotation.w
      value: 1
      objectReference: {fileID: 0}
    - target: {fileID: 4703613485780202, guid: 443c1787ebf2b50448eba9a53c45747f, type: 3}
      propertyPath: m_RootOrder
      value: 0
      objectReference: {fileID: 0}
    - target: {fileID: 4703613485780202, guid: 443c1787ebf2b50448eba9a53c45747f, type: 3}
      propertyPath: m_LocalEulerAnglesHint.x
      value: 0
      objectReference: {fileID: 0}
    - target: {fileID: 4703613485780202, guid: 443c1787ebf2b50448eba9a53c45747f, type: 3}
      propertyPath: m_LocalEulerAnglesHint.y
      value: 0
      objectReference: {fileID: 0}
    - target: {fileID: 4703613485780202, guid: 443c1787ebf2b50448eba9a53c45747f, type: 3}
      propertyPath: m_LocalEulerAnglesHint.z
      value: 0
      objectReference: {fileID: 0}
    m_RemovedComponents: []
  m_SourcePrefab: {fileID: 100100000, guid: 443c1787ebf2b50448eba9a53c45747f, type: 3}
--- !u!4 &7322098278805840982 stripped
Transform:
  m_CorrespondingSourceObject: {fileID: 4703613485780202, guid: 443c1787ebf2b50448eba9a53c45747f,
    type: 3}
  m_PrefabInstance: {fileID: 7317756201448745148}
  m_PrefabAsset: {fileID: 0}
