%YAML 1.1
%TAG !u! tag:unity3d.com,2011:
--- !u!1 &236848887911933718
GameObject:
  m_ObjectHideFlags: 0
  m_CorrespondingSourceObject: {fileID: 0}
  m_PrefabInstance: {fileID: 0}
  m_PrefabAsset: {fileID: 0}
  serializedVersion: 6
  m_Component:
  - component: {fileID: 9022218753806189749}
  m_Layer: 0
  m_Name: Claster 47
  m_TagString: claster
  m_Icon: {fileID: 0}
  m_NavMeshLayer: 0
  m_StaticEditorFlags: 0
  m_IsActive: 1
--- !u!4 &9022218753806189749
Transform:
  m_ObjectHideFlags: 0
  m_CorrespondingSourceObject: {fileID: 0}
  m_PrefabInstance: {fileID: 0}
  m_PrefabAsset: {fileID: 0}
  m_GameObject: {fileID: 236848887911933718}
  m_LocalRotation: {x: 0, y: 0, z: 0, w: 1}
  m_LocalPosition: {x: 0, y: 0, z: 0}
  m_LocalScale: {x: 1, y: 1, z: 1}
  m_Children:
  - {fileID: 6760906861687979314}
  - {fileID: 8520653000464350473}
  - {fileID: 7204129806268284692}
  m_Father: {fileID: 0}
  m_RootOrder: 0
  m_LocalEulerAnglesHint: {x: 0, y: 0, z: 0}
--- !u!1001 &2250301711000206692
PrefabInstance:
  m_ObjectHideFlags: 0
  serializedVersion: 2
  m_Modification:
    m_TransformParent: {fileID: 9022218753806189749}
    m_Modifications:
    - target: {fileID: 1691652863790834638, guid: 9745c048f1d2ff34ba54d5b76f361644,
        type: 3}
      propertyPath: m_Name
      value: Asteroid-2 (1)
      objectReference: {fileID: 0}
    - target: {fileID: 7567698538635051117, guid: 9745c048f1d2ff34ba54d5b76f361644,
        type: 3}
      propertyPath: m_LocalPosition.x
      value: -3
      objectReference: {fileID: 0}
    - target: {fileID: 7567698538635051117, guid: 9745c048f1d2ff34ba54d5b76f361644,
        type: 3}
      propertyPath: m_LocalPosition.y
      value: 0
      objectReference: {fileID: 0}
    - target: {fileID: 7567698538635051117, guid: 9745c048f1d2ff34ba54d5b76f361644,
        type: 3}
      propertyPath: m_LocalPosition.z
      value: 0
      objectReference: {fileID: 0}
    - target: {fileID: 7567698538635051117, guid: 9745c048f1d2ff34ba54d5b76f361644,
        type: 3}
      propertyPath: m_LocalRotation.x
      value: -0
      objectReference: {fileID: 0}
    - target: {fileID: 7567698538635051117, guid: 9745c048f1d2ff34ba54d5b76f361644,
        type: 3}
      propertyPath: m_LocalRotation.y
      value: -0
      objectReference: {fileID: 0}
    - target: {fileID: 7567698538635051117, guid: 9745c048f1d2ff34ba54d5b76f361644,
        type: 3}
      propertyPath: m_LocalRotation.z
      value: -0
      objectReference: {fileID: 0}
    - target: {fileID: 7567698538635051117, guid: 9745c048f1d2ff34ba54d5b76f361644,
        type: 3}
      propertyPath: m_LocalRotation.w
      value: 1
      objectReference: {fileID: 0}
    - target: {fileID: 7567698538635051117, guid: 9745c048f1d2ff34ba54d5b76f361644,
        type: 3}
      propertyPath: m_RootOrder
      value: 1
      objectReference: {fileID: 0}
    - target: {fileID: 7567698538635051117, guid: 9745c048f1d2ff34ba54d5b76f361644,
        type: 3}
      propertyPath: m_LocalEulerAnglesHint.x
      value: 0
      objectReference: {fileID: 0}
    - target: {fileID: 7567698538635051117, guid: 9745c048f1d2ff34ba54d5b76f361644,
        type: 3}
      propertyPath: m_LocalEulerAnglesHint.y
      value: 0
      objectReference: {fileID: 0}
    - target: {fileID: 7567698538635051117, guid: 9745c048f1d2ff34ba54d5b76f361644,
        type: 3}
      propertyPath: m_LocalEulerAnglesHint.z
      value: 0
      objectReference: {fileID: 0}
    m_RemovedComponents: []
  m_SourcePrefab: {fileID: 100100000, guid: 9745c048f1d2ff34ba54d5b76f361644, type: 3}
--- !u!4 &8520653000464350473 stripped
Transform:
  m_CorrespondingSourceObject: {fileID: 7567698538635051117, guid: 9745c048f1d2ff34ba54d5b76f361644,
    type: 3}
  m_PrefabInstance: {fileID: 2250301711000206692}
  m_PrefabAsset: {fileID: 0}
--- !u!1001 &2635370615991480195
PrefabInstance:
  m_ObjectHideFlags: 0
  serializedVersion: 2
  m_Modification:
    m_TransformParent: {fileID: 9022218753806189749}
    m_Modifications:
    - target: {fileID: 4709424172612369418, guid: e35d2165d380c5e4f9d8e25cf2b1581b,
        type: 3}
      propertyPath: m_Name
      value: Stars
      objectReference: {fileID: 0}
    - target: {fileID: 5145506056440385687, guid: e35d2165d380c5e4f9d8e25cf2b1581b,
        type: 3}
      propertyPath: m_LocalPosition.x
      value: 3
      objectReference: {fileID: 0}
    - target: {fileID: 5145506056440385687, guid: e35d2165d380c5e4f9d8e25cf2b1581b,
        type: 3}
      propertyPath: m_LocalPosition.y
      value: 0
      objectReference: {fileID: 0}
    - target: {fileID: 5145506056440385687, guid: e35d2165d380c5e4f9d8e25cf2b1581b,
        type: 3}
      propertyPath: m_LocalPosition.z
      value: 0
      objectReference: {fileID: 0}
    - target: {fileID: 5145506056440385687, guid: e35d2165d380c5e4f9d8e25cf2b1581b,
        type: 3}
      propertyPath: m_LocalRotation.x
      value: -0
      objectReference: {fileID: 0}
    - target: {fileID: 5145506056440385687, guid: e35d2165d380c5e4f9d8e25cf2b1581b,
        type: 3}
      propertyPath: m_LocalRotation.y
      value: -0
      objectReference: {fileID: 0}
    - target: {fileID: 5145506056440385687, guid: e35d2165d380c5e4f9d8e25cf2b1581b,
        type: 3}
      propertyPath: m_LocalRotation.z
      value: -0
      objectReference: {fileID: 0}
    - target: {fileID: 5145506056440385687, guid: e35d2165d380c5e4f9d8e25cf2b1581b,
        type: 3}
      propertyPath: m_LocalRotation.w
      value: 1
      objectReference: {fileID: 0}
    - target: {fileID: 5145506056440385687, guid: e35d2165d380c5e4f9d8e25cf2b1581b,
        type: 3}
      propertyPath: m_RootOrder
      value: 2
      objectReference: {fileID: 0}
    - target: {fileID: 5145506056440385687, guid: e35d2165d380c5e4f9d8e25cf2b1581b,
        type: 3}
      propertyPath: m_LocalEulerAnglesHint.x
      value: 0
      objectReference: {fileID: 0}
    - target: {fileID: 5145506056440385687, guid: e35d2165d380c5e4f9d8e25cf2b1581b,
        type: 3}
      propertyPath: m_LocalEulerAnglesHint.y
      value: 0
      objectReference: {fileID: 0}
    - target: {fileID: 5145506056440385687, guid: e35d2165d380c5e4f9d8e25cf2b1581b,
        type: 3}
      propertyPath: m_LocalEulerAnglesHint.z
      value: 0
      objectReference: {fileID: 0}
    m_RemovedComponents: []
  m_SourcePrefab: {fileID: 100100000, guid: e35d2165d380c5e4f9d8e25cf2b1581b, type: 3}
--- !u!4 &7204129806268284692 stripped
Transform:
  m_CorrespondingSourceObject: {fileID: 5145506056440385687, guid: e35d2165d380c5e4f9d8e25cf2b1581b,
    type: 3}
  m_PrefabInstance: {fileID: 2635370615991480195}
  m_PrefabAsset: {fileID: 0}
--- !u!1001 &3807315480599625055
PrefabInstance:
  m_ObjectHideFlags: 0
  serializedVersion: 2
  m_Modification:
    m_TransformParent: {fileID: 9022218753806189749}
    m_Modifications:
    - target: {fileID: 1691652863790834638, guid: 9745c048f1d2ff34ba54d5b76f361644,
        type: 3}
      propertyPath: m_Name
      value: Asteroid-2
      objectReference: {fileID: 0}
    - target: {fileID: 7567698538635051117, guid: 9745c048f1d2ff34ba54d5b76f361644,
        type: 3}
      propertyPath: m_LocalPosition.x
      value: 0
      objectReference: {fileID: 0}
    - target: {fileID: 7567698538635051117, guid: 9745c048f1d2ff34ba54d5b76f361644,
        type: 3}
      propertyPath: m_LocalPosition.y
      value: 0
      objectReference: {fileID: 0}
    - target: {fileID: 7567698538635051117, guid: 9745c048f1d2ff34ba54d5b76f361644,
        type: 3}
      propertyPath: m_LocalPosition.z
      value: 0
      objectReference: {fileID: 0}
    - target: {fileID: 7567698538635051117, guid: 9745c048f1d2ff34ba54d5b76f361644,
        type: 3}
      propertyPath: m_LocalRotation.x
      value: -0
      objectReference: {fileID: 0}
    - target: {fileID: 7567698538635051117, guid: 9745c048f1d2ff34ba54d5b76f361644,
        type: 3}
      propertyPath: m_LocalRotation.y
      value: -0
      objectReference: {fileID: 0}
    - target: {fileID: 7567698538635051117, guid: 9745c048f1d2ff34ba54d5b76f361644,
        type: 3}
      propertyPath: m_LocalRotation.z
      value: -0
      objectReference: {fileID: 0}
    - target: {fileID: 7567698538635051117, guid: 9745c048f1d2ff34ba54d5b76f361644,
        type: 3}
      propertyPath: m_LocalRotation.w
      value: 1
      objectReference: {fileID: 0}
    - target: {fileID: 7567698538635051117, guid: 9745c048f1d2ff34ba54d5b76f361644,
        type: 3}
      propertyPath: m_RootOrder
      value: 0
      objectReference: {fileID: 0}
    - target: {fileID: 7567698538635051117, guid: 9745c048f1d2ff34ba54d5b76f361644,
        type: 3}
      propertyPath: m_LocalEulerAnglesHint.x
      value: 0
      objectReference: {fileID: 0}
    - target: {fileID: 7567698538635051117, guid: 9745c048f1d2ff34ba54d5b76f361644,
        type: 3}
      propertyPath: m_LocalEulerAnglesHint.y
      value: 0
      objectReference: {fileID: 0}
    - target: {fileID: 7567698538635051117, guid: 9745c048f1d2ff34ba54d5b76f361644,
        type: 3}
      propertyPath: m_LocalEulerAnglesHint.z
      value: 0
      objectReference: {fileID: 0}
    m_RemovedComponents: []
  m_SourcePrefab: {fileID: 100100000, guid: 9745c048f1d2ff34ba54d5b76f361644, type: 3}
--- !u!4 &6760906861687979314 stripped
Transform:
  m_CorrespondingSourceObject: {fileID: 7567698538635051117, guid: 9745c048f1d2ff34ba54d5b76f361644,
    type: 3}
  m_PrefabInstance: {fileID: 3807315480599625055}
  m_PrefabAsset: {fileID: 0}
